{
  "$schema": "http://json.schemastore.org/sarif-1.0.0",
  "version": "1.0.0",
  "runs": [
    {
      "tool": {
        "name": "Microsoft (R) Visual C# Compiler",
        "version": "2.6.0.0",
        "fileVersion": "2.6.0.62329 (5429b35d)",
        "semanticVersion": "2.6.0",
        "language": "en-US"
      },
      "results": [
        {
          "ruleId": "S125",
          "level": "warning",
          "message": "Remove this commented out code.",
          "locations": [
            {
              "resultFile": {
                "uri": "file:///C:/Projetos/quantumtrader/quantumtrader/QuantumTrader/Program.cs",
                "region": {
                  "startLine": 69,
                  "startColumn": 13,
                  "endLine": 69,
                  "endColumn": 52
                }
              }
            }
          ],
          "properties": {
            "warningLevel": 1
          }
        },
        {
          "ruleId": "S1118",
          "level": "warning",
          "message": "Add a 'protected' constructor or the 'static' keyword to the class declaration.",
          "locations": [
            {
              "resultFile": {
                "uri": "file:///C:/Projetos/quantumtrader/quantumtrader/QuantumTrader/Program.cs",
                "region": {
                  "startLine": 23,
                  "startColumn": 11,
                  "endLine": 23,
                  "endColumn": 18
                }
              }
            }
          ],
          "properties": {
            "warningLevel": 1
          }
        }
      ],
      "rules": {
        "S1118": {
          "id": "S1118",
          "shortDescription": "Utility classes should not have public constructors",
          "fullDescription": "Utility classes, which are collections of static members, are not meant to be instantiated. Even abstract utility classes, which can be extended, should not have public constructors.",
          "defaultLevel": "warning",
          "helpUri": "https://rules.sonarsource.com/csharp/RSPEC-1118",
          "properties": {
            "category": "Major Code Smell",
            "isEnabledByDefault": true,
            "tags": [
              "SonarWay",
              "C#"
            ]
          }
        },
        "S125": {
          "id": "S125",
          "shortDescription": "Sections of code should not be \"commented out\"",
          "fullDescription": "Programmers should not comment out code as it bloats programs and reduces readability.",
          "defaultLevel": "warning",
          "helpUri": "https://rules.sonarsource.com/csharp/RSPEC-125",
          "properties": {
            "category": "Major Code Smell",
            "isEnabledByDefault": true,
            "tags": [
              "SonarWay",
              "C#"
            ]
          }
        }
      }
    }
  ]
}