{
  "Kraken": "Kraken",
  "API-Version": "0",
  "API-Key": "v/Pp08UAe2rfE7Qng+G9yWN6IdwJFX+fFHg9feWOnRlMbf49twlXvIbQ",
  "API-Sign": "ZSuJ31lAH+1zMIc1WTXScCufAcr/y5Pp8K33vLXpdzkEexiE3iBen5AUt0cCGjnLhePIh90HqZzxLhKAqz7Ldw==",
  "API-Url": "https://api.kraken.com",
  "API-Public-Route": "{0}/public/{1}",
  "API-Private-Route": "{0}/private/{1}",
  "API-EndPoints": {
    "Depth": "Depth",
    "Ticker": "Ticker",
    "AccountBalance": "Balance",
    "CancelOrder": "CancelOrder",
    "AddOrder": "AddOrder",
    "ClosedOrder": "ClosedOrders",
    "OpenOrder": "OpenOrders",
    "QueryOrder": "QueryOrders"
  },

  "Sleep-RequestBook": 2500,
  "Sleep-AccountBalance": 2000,
  "Sleep-OpenOrder": 7000,
  "Sleep-QueryOrder": 2000
}